{
 "resultCount":15,
 "results": [
{"wrapperType":"track", "kind":"song", "artistId":3996865, "collectionId":579372950, "trackId":579373079, "artistName":"Metallica", "collectionName":"Metallica", "trackName":"Enter Sandman", "collectionCensoredName":"Metallica", "trackCensoredName":"Enter Sandman", "artistViewUrl":"https://music.apple.com/us/artist/metallica/3996865?uo=4", "collectionViewUrl":"https://music.apple.com/us/album/enter-sandman/579372950?i=579373079&uo=4", "trackViewUrl":"https://music.apple.com/us/album/enter-sandman/579372950?i=579373079&uo=4", "previewUrl":"https://audio-ssl.itunes.apple.com/itunes-assets/Music7/v4/bd/fd/e4/bdfde4e4-5407-9bb0-e632-edbf079bed21/mzaf_907706799096684396.plus.aac.p.m4a", "artworkUrl30":"https://is1-ssl.mzstatic.com/image/thumb/Music/v4/0b/9c/d2/0b9cd2e7-6e76-8912-0357-14780cc2616a/source/30x30bb.jpg", "artworkUrl60":"https://is1-ssl.mzstatic.com/image/thumb/Music/v4/0b/9c/d2/0b9cd2e7-6e76-8912-0357-14780cc2616a/source/60x60bb.jpg", "artworkUrl100":"https://is1-ssl.mzstatic.com/image/thumb/Music/v4/0b/9c/d2/0b9cd2e7-6e76-8912-0357-14780cc2616a/source/100x100bb.jpg", "collectionPrice":9.99, "trackPrice":1.29, "releaseDate":"1991-07-29T07:00:00Z", "collectionExplicitness":"notExplicit", "trackExplicitness":"notExplicit", "discCount":1, "discNumber":1, "trackCount":12, "trackNumber":1, "trackTimeMillis":331560, "country":"USA", "currency":"USD", "primaryGenreName":"Metal", "isStreamable":true}, 
{"wrapperType":"track", "kind":"song", "artistId":3996865, "collectionId":579372950, "trackId":579373086, "artistName":"Metallica", "collectionName":"Metallica", "trackName":"Nothing Else Matters", "collectionCensoredName":"Metallica", "trackCensoredName":"Nothing Else Matters", "artistViewUrl":"https://music.apple.com/us/artist/metallica/3996865?uo=4", "collectionViewUrl":"https://music.apple.com/us/album/nothing-else-matters/579372950?i=579373086&uo=4", "trackViewUrl":"https://music.apple.com/us/album/nothing-else-matters/579372950?i=579373086&uo=4", "previewUrl":"https://audio-ssl.itunes.apple.com/itunes-assets/Music7/v4/3c/e7/ac/3ce7ac90-4834-151a-667e-2259c7e7bd38/mzaf_760160703636187828.plus.aac.p.m4a", "artworkUrl30":"https://is1-ssl.mzstatic.com/image/thumb/Music/v4/0b/9c/d2/0b9cd2e7-6e76-8912-0357-14780cc2616a/source/30x30bb.jpg", "artworkUrl60":"https://is1-ssl.mzstatic.com/image/thumb/Music/v4/0b/9c/d2/0b9cd2e7-6e76-8912-0357-14780cc2616a/source/60x60bb.jpg", "artworkUrl100":"https://is1-ssl.mzstatic.com/image/thumb/Music/v4/0b/9c/d2/0b9cd2e7-6e76-8912-0357-14780cc2616a/source/100x100bb.jpg", "collectionPrice":9.99, "trackPrice":1.29, "releaseDate":"1991-08-12T07:00:00Z", "collectionExplicitness":"notExplicit", "trackExplicitness":"notExplicit", "discCount":1, "discNumber":1, "trackCount":12, "trackNumber":8, "trackTimeMillis":388733, "country":"USA", "currency":"USD", "primaryGenreName":"Metal", "isStreamable":true}, 
{"wrapperType":"track", "kind":"song", "artistId":3996865, "collectionId":579372950, "trackId":579373082, "artistName":"Metallica", "collectionName":"Metallica", "trackName":"The Unforgiven", "collectionCensoredName":"Metallica", "trackCensoredName":"The Unforgiven", "artistViewUrl":"https://music.apple.com/us/artist/metallica/3996865?uo=4", "collectionViewUrl":"https://music.apple.com/us/album/the-unforgiven/579372950?i=579373082&uo=4", "trackViewUrl":"https://music.apple.com/us/album/the-unforgiven/579372950?i=579373082&uo=4", "previewUrl":"https://audio-ssl.itunes.apple.com/itunes-assets/Music7/v4/76/fd/84/76fd842e-4fd8-df8d-0931-0b6888ccbf8e/mzaf_4864705203911317120.plus.aac.p.m4a", "artworkUrl30":"https://is1-ssl.mzstatic.com/image/thumb/Music/v4/0b/9c/d2/0b9cd2e7-6e76-8912-0357-14780cc2616a/source/30x30bb.jpg", "artworkUrl60":"https://is1-ssl.mzstatic.com/image/thumb/Music/v4/0b/9c/d2/0b9cd2e7-6e76-8912-0357-14780cc2616a/source/60x60bb.jpg", "artworkUrl100":"https://is1-ssl.mzstatic.com/image/thumb/Music/v4/0b/9c/d2/0b9cd2e7-6e76-8912-0357-14780cc2616a/source/100x100bb.jpg", "collectionPrice":9.99, "trackPrice":1.29, "releaseDate":"1991-08-12T07:00:00Z", "collectionExplicitness":"notExplicit", "trackExplicitness":"notExplicit", "discCount":1, "discNumber":1, "trackCount":12, "trackNumber":4, "trackTimeMillis":387107, "country":"USA", "currency":"USD", "primaryGenreName":"Metal", "isStreamable":true}, 
{"wrapperType":"track", "kind":"song", "artistId":3996865, "collectionId":579372950, "trackId":579373083, "artistName":"Metallica", "collectionName":"Metallica", "trackName":"Wherever I May Roam", "collectionCensoredName":"Metallica", "trackCensoredName":"Wherever I May Roam", "artistViewUrl":"https://music.apple.com/us/artist/metallica/3996865?uo=4", "collectionViewUrl":"https://music.apple.com/us/album/wherever-i-may-roam/579372950?i=579373083&uo=4", "trackViewUrl":"https://music.apple.com/us/album/wherever-i-may-roam/579372950?i=579373083&uo=4", "previewUrl":"https://audio-ssl.itunes.apple.com/itunes-assets/Music7/v4/2b/ae/13/2bae1313-db61-66fc-d88a-900917e4df3f/mzaf_4434439105831171911.plus.aac.p.m4a", "artworkUrl30":"https://is1-ssl.mzstatic.com/image/thumb/Music/v4/0b/9c/d2/0b9cd2e7-6e76-8912-0357-14780cc2616a/source/30x30bb.jpg", "artworkUrl60":"https://is1-ssl.mzstatic.com/image/thumb/Music/v4/0b/9c/d2/0b9cd2e7-6e76-8912-0357-14780cc2616a/source/60x60bb.jpg", "artworkUrl100":"https://is1-ssl.mzstatic.com/image/thumb/Music/v4/0b/9c/d2/0b9cd2e7-6e76-8912-0357-14780cc2616a/source/100x100bb.jpg", "collectionPrice":9.99, "trackPrice":1.29, "releaseDate":"1991-08-12T07:00:00Z", "collectionExplicitness":"notExplicit", "trackExplicitness":"notExplicit", "discCount":1, "discNumber":1, "trackCount":12, "trackNumber":5, "trackTimeMillis":404227, "country":"USA", "currency":"USD", "primaryGenreName":"Metal", "isStreamable":true}, 
{"wrapperType":"track", "kind":"song", "artistId":3996865, "collectionId":579372950, "trackId":579373080, "artistName":"Metallica", "collectionName":"Metallica", "trackName":"Sad But True", "collectionCensoredName":"Metallica", "trackCensoredName":"Sad But True", "artistViewUrl":"https://music.apple.com/us/artist/metallica/3996865?uo=4", "collectionViewUrl":"https://music.apple.com/us/album/sad-but-true/579372950?i=579373080&uo=4", "trackViewUrl":"https://music.apple.com/us/album/sad-but-true/579372950?i=579373080&uo=4", "previewUrl":"https://audio-ssl.itunes.apple.com/itunes-assets/Music7/v4/ed/32/f5/ed32f593-25e9-45d4-68f5-d2c31089be89/mzaf_8705171028495538548.plus.aac.p.m4a", "artworkUrl30":"https://is1-ssl.mzstatic.com/image/thumb/Music/v4/0b/9c/d2/0b9cd2e7-6e76-8912-0357-14780cc2616a/source/30x30bb.jpg", "artworkUrl60":"https://is1-ssl.mzstatic.com/image/thumb/Music/v4/0b/9c/d2/0b9cd2e7-6e76-8912-0357-14780cc2616a/source/60x60bb.jpg", "artworkUrl100":"https://is1-ssl.mzstatic.com/image/thumb/Music/v4/0b/9c/d2/0b9cd2e7-6e76-8912-0357-14780cc2616a/source/100x100bb.jpg", "collectionPrice":9.99, "trackPrice":1.29, "releaseDate":"1991-08-12T07:00:00Z", "collectionExplicitness":"notExplicit", "trackExplicitness":"notExplicit", "discCount":1, "discNumber":1, "trackCount":12, "trackNumber":2, "trackTimeMillis":324573, "country":"USA", "currency":"USD", "primaryGenreName":"Metal", "isStreamable":true}, 
{"wrapperType":"track", "kind":"song", "artistId":3996865, "collectionId":579148345, "trackId":579149036, "artistName":"Metallica", "collectionName":"Ride the Lightning (Remastered)", "trackName":"For Whom the Bell Tolls", "collectionCensoredName":"Ride the Lightning (Remastered)", "trackCensoredName":"For Whom the Bell Tolls", "artistViewUrl":"https://music.apple.com/us/artist/metallica/3996865?uo=4", "collectionViewUrl":"https://music.apple.com/us/album/for-whom-the-bell-tolls/579148345?i=579149036&uo=4", "trackViewUrl":"https://music.apple.com/us/album/for-whom-the-bell-tolls/579148345?i=579149036&uo=4", 
"previewUrl":"https://audio-ssl.itunes.apple.com/itunes-assets/AudioPreview60/v4/37/aa/f3/37aaf3b9-b59c-ab3d-616e-094ec6f17dcc/mzaf_7252537879900843424.plus.aac.p.m4a", "artworkUrl30":"https://is4-ssl.mzstatic.com/image/thumb/Music6/v4/86/87/0f/86870f81-8e08-2dc6-778b-f33e90ab5507/source/30x30bb.jpg", "artworkUrl60":"https://is4-ssl.mzstatic.com/image/thumb/Music6/v4/86/87/0f/86870f81-8e08-2dc6-778b-f33e90ab5507/source/60x60bb.jpg", "artworkUrl100":"https://is4-ssl.mzstatic.com/image/thumb/Music6/v4/86/87/0f/86870f81-8e08-2dc6-778b-f33e90ab5507/source/100x100bb.jpg", "collectionPrice":9.99, "trackPrice":1.29, "releaseDate":"1984-07-27T07:00:00Z", "collectionExplicitness":"notExplicit", "trackExplicitness":"notExplicit", "discCount":1, "discNumber":1, "trackCount":8, "trackNumber":3, "trackTimeMillis":309973, "country":"USA", "currency":"USD", "primaryGenreName":"Metal", "isStreamable":true}, 
{"wrapperType":"track", "kind":"song", "artistId":3996865, "collectionId":1434424163, "trackId":1434424172, "artistName":"Metallica", "collectionName":"...And Justice for All (Remastered)", "trackName":"One (Remastered)", "collectionCensoredName":"...And Justice for All (Remastered)", "trackCensoredName":"One (Remastered)", "artistViewUrl":"https://music.apple.com/us/artist/metallica/3996865?uo=4", "collectionViewUrl":"https://music.apple.com/us/album/one-remastered/1434424163?i=1434424172&uo=4", "trackViewUrl":"https://music.apple.com/us/album/one-remastered/1434424163?i=1434424172&uo=4", 
"previewUrl":"https://audio-ssl.itunes.apple.com/itunes-assets/AudioPreview118/v4/67/04/26/670426be-c5c4-349d-ab09-ea1d0d14ae7a/mzaf_212415928619149169.plus.aac.p.m4a", "artworkUrl30":"https://is1-ssl.mzstatic.com/image/thumb/Music118/v4/21/23/93/21239327-9c14-1525-461f-220829744d0d/source/30x30bb.jpg", "artworkUrl60":"https://is1-ssl.mzstatic.com/image/thumb/Music118/v4/21/23/93/21239327-9c14-1525-461f-220829744d0d/source/60x60bb.jpg", "artworkUrl100":"https://is1-ssl.mzstatic.com/image/thumb/Music118/v4/21/23/93/21239327-9c14-1525-461f-220829744d0d/source/100x100bb.jpg", "collectionPrice":9.99, "trackPrice":1.29, "releaseDate":"1988-08-25T07:00:00Z", "collectionExplicitness":"explicit", "trackExplicitness":"notExplicit", "discCount":1, "discNumber":1, "trackCount":8, "trackNumber":4, "trackTimeMillis":446146, "country":"USA", "currency":"USD", "primaryGenreName":"Metal", "isStreamable":true}, 
{"wrapperType":"track", "kind":"song", "artistId":3996865, "collectionId":1275600311, "trackId":1275600554, "artistName":"Metallica", "collectionName":"Master of Puppets (Remastered)", "trackName":"Master of Puppets (Remastered)", "collectionCensoredName":"Master of Puppets (Remastered)", "trackCensoredName":"Master of Puppets (Remastered)", "artistViewUrl":"https://music.apple.com/us/artist/metallica/3996865?uo=4", "collectionViewUrl":"https://music.apple.com/us/album/master-of-puppets-remastered/1275600311?i=1275600554&uo=4", "trackViewUrl":"https://music.apple.com/us/album/master-of-puppets-remastered/1275600311?i=1275600554&uo=4", 
"previewUrl":"https://audio-ssl.itunes.apple.com/itunes-assets/AudioPreview128/v4/41/ec/18/41ec1871-836e-5b6f-8a56-af46c65131b7/mzaf_5294787088070373325.plus.aac.p.m4a", "artworkUrl30":"https://is2-ssl.mzstatic.com/image/thumb/Music128/v4/8c/da/60/8cda60a5-0826-b606-d9d2-528da6af01e2/source/30x30bb.jpg", "artworkUrl60":"https://is2-ssl.mzstatic.com/image/thumb/Music128/v4/8c/da/60/8cda60a5-0826-b606-d9d2-528da6af01e2/source/60x60bb.jpg", "artworkUrl100":"https://is2-ssl.mzstatic.com/image/thumb/Music128/v4/8c/da/60/8cda60a5-0826-b606-d9d2-528da6af01e2/source/100x100bb.jpg", "collectionPrice":9.99, "trackPrice":1.29, "releaseDate":"1986-03-03T12:00:00Z", "collectionExplicitness":"explicit", "trackExplicitness":"notExplicit", "discCount":1, "discNumber":1, "trackCount":8, "trackNumber":2, "trackTimeMillis":515387, "country":"USA", "currency":"USD", "primaryGenreName":"Metal", "isStreamable":true}, 
{"wrapperType":"track", "kind":"song", "artistId":3996865, "collectionId":579370472, "trackId":579370550, "artistName":"Metallica", "collectionName":"Garage, Inc.", "trackName":"Turn the Page", "collectionCensoredName":"Garage, Inc.", "trackCensoredName":"Turn the Page", "artistViewUrl":"https://music.apple.com/us/artist/metallica/3996865?uo=4", "collectionViewUrl":"https://music.apple.com/us/album/turn-the-page/579370472?i=579370550&uo=4", "trackViewUrl":"https://music.apple.com/us/album/turn-the-page/579370472?i=579370550&uo=4", "previewUrl":"https://audio-ssl.itunes.apple.com/itunes-assets/Music1/v4/95/3a/cb/953acb64-12ec-0f2b-acda-40a328dcc7bf/mzaf_2414496828608093482.plus.aac.p.m4a", "artworkUrl30":"https://is1-ssl.mzstatic.com/image/thumb/Music/v4/c8/ef/0e/c8ef0e6d-ab21-d284-7876-a5e255e7ee5e/source/30x30bb.jpg", "artworkUrl60":"https://is1-ssl.mzstatic.com/image/thumb/Music/v4/c8/ef/0e/c8ef0e6d-ab21-d284-7876-a5e255e7ee5e/source/60x60bb.jpg", "artworkUrl100":"https://is1-ssl.mzstatic.com/image/thumb/Music/v4/c8/ef/0e/c8ef0e6d-ab21-d284-7876-a5e255e7ee5e/source/100x100bb.jpg", "collectionPrice":14.99, "trackPrice":1.29, "releaseDate":"1998-11-16T08:00:00Z", "collectionExplicitness":"notExplicit", "trackExplicitness":"notExplicit", "discCount":1, "discNumber":1, "trackCount":27, "trackNumber":4, "trackTimeMillis":366573, "country":"USA", "currency":"USD", "primaryGenreName":"Metal", "isStreamable":true}, 
{"wrapperType":"track", "kind":"song", "artistId":3996865, "collectionId":579148345, "trackId":579149037, "artistName":"Metallica", "collectionName":"Ride the Lightning (Remastered)", "trackName":"Fade to Black", "collectionCensoredName":"Ride the Lightning (Remastered)", "trackCensoredName":"Fade to Black", "artistViewUrl":"https://music.apple.com/us/artist/metallica/3996865?uo=4", "collectionViewUrl":"https://music.apple.com/us/album/fade-to-black/579148345?i=579149037&uo=4", "trackViewUrl":"https://music.apple.com/us/album/fade-to-black/579148345?i=579149037&uo=4", 
"previewUrl":"https://audio-ssl.itunes.apple.com/itunes-assets/AudioPreview60/v4/93/c5/9d/93c59d6a-3316-bc1b-36c8-b1422b27c806/mzaf_6797284092158134185.plus.aac.p.m4a", "artworkUrl30":"https://is4-ssl.mzstatic.com/image/thumb/Music6/v4/86/87/0f/86870f81-8e08-2dc6-778b-f33e90ab5507/source/30x30bb.jpg", "artworkUrl60":"https://is4-ssl.mzstatic.com/image/thumb/Music6/v4/86/87/0f/86870f81-8e08-2dc6-778b-f33e90ab5507/source/60x60bb.jpg", "artworkUrl100":"https://is4-ssl.mzstatic.com/image/thumb/Music6/v4/86/87/0f/86870f81-8e08-2dc6-778b-f33e90ab5507/source/100x100bb.jpg", "collectionPrice":9.99, "trackPrice":1.29, "releaseDate":"1984-07-27T07:00:00Z", "collectionExplicitness":"notExplicit", "trackExplicitness":"notExplicit", "discCount":1, "discNumber":1, "trackCount":8, "trackNumber":4, "trackTimeMillis":417227, "country":"USA", "currency":"USD", "primaryGenreName":"Metal", "isStreamable":true}, 
{"wrapperType":"track", "kind":"song", "artistId":3996865, "collectionId":579367503, "trackId":579368314, "artistName":"Metallica", "collectionName":"Death Magnetic", "trackName":"The Day That Never Comes", "collectionCensoredName":"Death Magnetic", "trackCensoredName":"The Day That Never Comes", "artistViewUrl":"https://music.apple.com/us/artist/metallica/3996865?uo=4", "collectionViewUrl":"https://music.apple.com/us/album/the-day-that-never-comes/579367503?i=579368314&uo=4", "trackViewUrl":"https://music.apple.com/us/album/the-day-that-never-comes/579367503?i=579368314&uo=4", "previewUrl":"https://audio-ssl.itunes.apple.com/itunes-assets/Music7/v4/7c/85/33/7c853348-a29e-2c98-7723-dc7a5a4c2de3/mzaf_6477004030567745440.plus.aac.p.m4a", "artworkUrl30":"https://is1-ssl.mzstatic.com/image/thumb/Music/v4/ea/4e/4d/ea4e4d60-8be6-89b0-8f76-df350c53876a/source/30x30bb.jpg", "artworkUrl60":"https://is1-ssl.mzstatic.com/image/thumb/Music/v4/ea/4e/4d/ea4e4d60-8be6-89b0-8f76-df350c53876a/source/60x60bb.jpg", "artworkUrl100":"https://is1-ssl.mzstatic.com/image/thumb/Music/v4/ea/4e/4d/ea4e4d60-8be6-89b0-8f76-df350c53876a/source/100x100bb.jpg", "collectionPrice":9.99, "trackPrice":1.29, "releaseDate":"2008-08-21T07:00:00Z", "collectionExplicitness":"notExplicit", "trackExplicitness":"notExplicit", "discCount":1, "discNumber":1, "trackCount":10, "trackNumber":4, "trackTimeMillis":476267, "country":"USA", "currency":"USD", "primaryGenreName":"Metal", "isStreamable":true}, 
{"wrapperType":"track", "kind":"song", "artistId":3996865, "collectionId":579372950, "trackId":579373084, "artistName":"Metallica", "collectionName":"Metallica", "trackName":"Don't Tread On Me", "collectionCensoredName":"Metallica", "trackCensoredName":"Don't Tread On Me", "artistViewUrl":"https://music.apple.com/us/artist/metallica/3996865?uo=4", "collectionViewUrl":"https://music.apple.com/us/album/dont-tread-on-me/579372950?i=579373084&uo=4", "trackViewUrl":"https://music.apple.com/us/album/dont-tread-on-me/579372950?i=579373084&uo=4", "previewUrl":"https://audio-ssl.itunes.apple.com/itunes-assets/Music7/v4/14/db/2a/14db2a39-1404-9be1-b579-0d3db7254ec9/mzaf_3809260049408293444.plus.aac.p.m4a", "artworkUrl30":"https://is1-ssl.mzstatic.com/image/thumb/Music/v4/0b/9c/d2/0b9cd2e7-6e76-8912-0357-14780cc2616a/source/30x30bb.jpg", "artworkUrl60":"https://is1-ssl.mzstatic.com/image/thumb/Music/v4/0b/9c/d2/0b9cd2e7-6e76-8912-0357-14780cc2616a/source/60x60bb.jpg", "artworkUrl100":"https://is1-ssl.mzstatic.com/image/thumb/Music/v4/0b/9c/d2/0b9cd2e7-6e76-8912-0357-14780cc2616a/source/100x100bb.jpg", "collectionPrice":9.99, "trackPrice":1.29, "releaseDate":"1991-08-12T07:00:00Z", "collectionExplicitness":"notExplicit", "trackExplicitness":"notExplicit", "discCount":1, "discNumber":1, "trackCount":12, "trackNumber":6, "trackTimeMillis":240533, "country":"USA", "currency":"USD", "primaryGenreName":"Metal", "isStreamable":true}, 
{"wrapperType":"track", "kind":"song", "artistId":3996865, "collectionId":579370472, "trackId":579370556, "artistName":"Metallica", "collectionName":"Garage, Inc.", "trackName":"Whiskey In the Jar", "collectionCensoredName":"Garage, Inc.", "trackCensoredName":"Whiskey In the Jar", "artistViewUrl":"https://music.apple.com/us/artist/metallica/3996865?uo=4", "collectionViewUrl":"https://music.apple.com/us/album/whiskey-in-the-jar/579370472?i=579370556&uo=4", "trackViewUrl":"https://music.apple.com/us/album/whiskey-in-the-jar/579370472?i=579370556&uo=4", "previewUrl":"https://audio-ssl.itunes.apple.com/itunes-assets/Music5/v4/76/3d/1c/763d1c13-f946-e617-8c38-ef40d2f98b4b/mzaf_1447953601908007982.plus.aac.p.m4a", "artworkUrl30":"https://is1-ssl.mzstatic.com/image/thumb/Music/v4/c8/ef/0e/c8ef0e6d-ab21-d284-7876-a5e255e7ee5e/source/30x30bb.jpg", "artworkUrl60":"https://is1-ssl.mzstatic.com/image/thumb/Music/v4/c8/ef/0e/c8ef0e6d-ab21-d284-7876-a5e255e7ee5e/source/60x60bb.jpg", "artworkUrl100":"https://is1-ssl.mzstatic.com/image/thumb/Music/v4/c8/ef/0e/c8ef0e6d-ab21-d284-7876-a5e255e7ee5e/source/100x100bb.jpg", "collectionPrice":14.99, "trackPrice":1.29, "releaseDate":"1998-11-23T08:00:00Z", "collectionExplicitness":"notExplicit", "trackExplicitness":"notExplicit", "discCount":1, "discNumber":1, "trackCount":27, "trackNumber":9, "trackTimeMillis":304800, "country":"USA", "currency":"USD", "primaryGenreName":"Metal", "isStreamable":true}, 
{"wrapperType":"track", "kind":"song", "artistId":3996865, "collectionId":579372950, "trackId":579373149, "artistName":"Metallica", "collectionName":"Metallica", "trackName":"My Friend of Misery", "collectionCensoredName":"Metallica", "trackCensoredName":"My Friend of Misery", "artistViewUrl":"https://music.apple.com/us/artist/metallica/3996865?uo=4", "collectionViewUrl":"https://music.apple.com/us/album/my-friend-of-misery/579372950?i=579373149&uo=4", "trackViewUrl":"https://music.apple.com/us/album/my-friend-of-misery/579372950?i=579373149&uo=4", "previewUrl":"https://audio-ssl.itunes.apple.com/itunes-assets/Music5/v4/4e/d4/79/4ed47976-981a-34b9-87a3-d9726a827822/mzaf_6796329810861857415.plus.aac.p.m4a", "artworkUrl30":"https://is1-ssl.mzstatic.com/image/thumb/Music/v4/0b/9c/d2/0b9cd2e7-6e76-8912-0357-14780cc2616a/source/30x30bb.jpg", "artworkUrl60":"https://is1-ssl.mzstatic.com/image/thumb/Music/v4/0b/9c/d2/0b9cd2e7-6e76-8912-0357-14780cc2616a/source/60x60bb.jpg", "artworkUrl100":"https://is1-ssl.mzstatic.com/image/thumb/Music/v4/0b/9c/d2/0b9cd2e7-6e76-8912-0357-14780cc2616a/source/100x100bb.jpg", "collectionPrice":9.99, "trackPrice":1.29, "releaseDate":"1991-08-12T07:00:00Z", "collectionExplicitness":"notExplicit", "trackExplicitness":"notExplicit", "discCount":1, "discNumber":1, "trackCount":12, "trackNumber":11, "trackTimeMillis":409493, "country":"USA", "currency":"USD", "primaryGenreName":"Metal", "isStreamable":true}, 
{"wrapperType":"track", "kind":"song", "artistId":3996865, "collectionId":579372950, "trackId":579373088, "artistName":"Metallica", "collectionName":"Metallica", "trackName":"The God That Failed", "collectionCensoredName":"Metallica", "trackCensoredName":"The God That Failed", "artistViewUrl":"https://music.apple.com/us/artist/metallica/3996865?uo=4", "collectionViewUrl":"https://music.apple.com/us/album/the-god-that-failed/579372950?i=579373088&uo=4", "trackViewUrl":"https://music.apple.com/us/album/the-god-that-failed/579372950?i=579373088&uo=4", 
"previewUrl":"https://audio-ssl.itunes.apple.com/itunes-assets/AudioPreview30/v4/ed/a4/7b/eda47bcd-6c1d-49e4-c59e-fe320b7921fc/mzaf_3200241986258829289.plus.aac.p.m4a", "artworkUrl30":"https://is1-ssl.mzstatic.com/image/thumb/Music/v4/0b/9c/d2/0b9cd2e7-6e76-8912-0357-14780cc2616a/source/30x30bb.jpg", "artworkUrl60":"https://is1-ssl.mzstatic.com/image/thumb/Music/v4/0b/9c/d2/0b9cd2e7-6e76-8912-0357-14780cc2616a/source/60x60bb.jpg", "artworkUrl100":"https://is1-ssl.mzstatic.com/image/thumb/Music/v4/0b/9c/d2/0b9cd2e7-6e76-8912-0357-14780cc2616a/source/100x100bb.jpg", "collectionPrice":9.99, "trackPrice":1.29, "releaseDate":"1991-08-12T07:00:00Z", "collectionExplicitness":"notExplicit", "trackExplicitness":"notExplicit", "discCount":1, "discNumber":1, "trackCount":12, "trackNumber":10, "trackTimeMillis":308533, "country":"USA", "currency":"USD", "primaryGenreName":"Metal", "isStreamable":true}]
}
